						<svg width="24" height="24" viewBox="0 0 24 24" fill="none" xmlns="http://www.w3.org/2000/svg">
							<path fill-rule="evenodd" clip-rule="evenodd" d="M11.3492 5.24074C11.7237 4.91975 12.2763 4.91975 12.6508 5.24074L19.6508 11.2407C20.0701 11.6002 20.1187 12.2315 19.7592 12.6508C19.3998 13.0701 18.7685 13.1187 18.3492 12.7593L13 8.17422V21C13 21.5523 12.5523 22 12 22C11.4477 22 11 21.5523 11 21V8.17422L5.65078 12.7593C5.23145 13.1187 4.60015 13.0701 4.24073 12.6508C3.88131 12.2315 3.92987 11.6002 4.3492 11.2407L11.3492 5.24074Z"
								fill="black" />
							<path fill-rule="evenodd" clip-rule="evenodd" d="M4 3C4 2.44772 4.44772 2 5 2H19C19.5523 2 20 2.44772 20 3C20 3.55228 19.5523 4 19 4H5C4.44772 4 4 3.55228 4 3Z"
								fill="black" />
						</svg>